<svg xmlns="http://www.w3.org/2000/svg" xmlns:xlink="http://www.w3.org/1999/xlink" x="0px" y="0px" width="16px" height="32px" viewBox="0 0 16 32">
	<style>
	.cd-arrow{
		fill:#fff;
	}
	</style>
	<g  transform="translate(0, 0)">
		<polygon class="cd-arrow" points="6,13.4 4.6,12 8.6,8 4.6,4 6,2.6 11.4,8 "/>
	</g>
	<g  transform="translate(0, 16)">
		<polygon class="cd-arrow" points="6,13.4 4.6,12 8.6,8 4.6,4 6,2.6 11.4,8 "/>
	</g>
</svg>
