﻿{
  "ProviderId": "Microsoft.VisualStudio.ConnectedService.Wcf",
  "Version": "15.0.20628.921",
  "ExtendedData": {
    "Uri": "http://signchain-dev.aliaslab.net/NotificationEmailService/EmailService.svc?wsdl",
    "Namespace": "IDSign.IdP.MultiModule.RemoteRepository.WCF.EmailService",
    "SelectedAccessLevelForGeneratedClass": "Public",
    "GenerateMessageContract": false,
    "ReuseTypesinReferencedAssemblies": true,
    "ReuseTypesinAllReferencedAssemblies": true,
    "CollectionTypeReference": {
      "Item1": "System.Collections.Generic.List`1",
      "Item2": "System.Collections.dll"
    },
    "DictionaryCollectionTypeReference": {
      "Item1": "System.Collections.Generic.Dictionary`2",
      "Item2": "System.Collections.dll"
    },
    "CheckedReferencedAssemblies": [],
    "InstanceId": null,
    "Name": "IDSign.IdP.MultiModule.RemoteRepository.WCF.EmailService",
    "Metadata": {}
  }
}