{
	bool "AlwaysIncludeUserClaimsInIdToken": true,
int "IdentityTokenLifetime": 3600,
int "AccessTokenLifetime": 3600,
int "AuthorizationCodeLifetime": 3600,
int "AbsoluteRefreshTokenLifetime": 3600,
int "SlidingRefreshTokenLifetime": 3600,
int? "ConsentLifetime" : null,
TokenUsage "RefreshTokenUsage": 1,
bool "UpdateAccessTokenClaimsOnRefresh": true,
TokenExpiration "RefreshTokenExpiration": 1,
AccessTokenType "AccessTokenType": 0,
bool "EnableLocalLogin": true,
ICollection < string > "IdentityProviderRestrictions": {},
bool "IncludeJwtId": false,
ICollection < Claim > "Claims": {
	"Type": "test_type",
	"value": "test_value"
},
bool "AlwaysSendClientClaims": true,
string "ClientClaimsPrefix": "",
string "PairWiseSubjectSalt": "",
ICollection < string > "AllowedScopes": {
	"openid",
	"profile",
	"roles"
},
bool "AllowOfflineAccess": false,
IDictionary < string, "string> " Properties " : {{"prop1_key":"prop1_value"}},
string " BackChannelLogoutUri " : "http://localhost:4200/login",
bool " Enabled " : true,
string " ClientId " : "idsign-admin-test-b",
string " ProtocolType " : "",
ICollection<Secret> " ClientSecrets " : {},
bool " RequireClientSecret " : false,
string " ClientName " : "idsign-admin-test-b",
string " ClientUri " : "",
string " LogoUri " : "",
ICollection<string> " AllowedCorsOrigins " : {"http://signchain-dev.aliaslab.net:8001/IDSign.Admin.Web/silent-refresh.html",
"http://signchain-dev.aliaslab.net/IDSign.Admin.Web/silent-refresh.html",
"http://signchain-dev.aliaslab.net:8001/IDSign.Admin.Web/callback",
"http://signchain-dev.aliaslab.net/IDSign.Admin.Web/callback",
"http://localhost:4200/callback",
"http://localhost:4200/silent-refresh.html"},
bool " RequireConsent " : false,
ICollection<string> " AllowedGrantTypes " : {},
bool " RequirePkce " : false,
bool " AllowPlainTextPkce " : false,
bool " AllowAccessTokensViaBrowser " : true,
ICollection<string> " RedirectUris " : {"http://signchain-dev.aliaslab.net:8001/IDSign.Admin.Web/silent-refresh.html",
"http://signchain-dev.aliaslab.net/IDSign.Admin.Web/silent-refresh.html",
"http://signchain-dev.aliaslab.net:8001/IDSign.Admin.Web/callback",
"http://signchain-dev.aliaslab.net/IDSign.Admin.Web/callback",
"http://localhost:4200/callback",
"http://localhost:4200/silent-refresh.html"
},
ICollection < string > "PostLogoutRedirectUris": {},
string "FrontChannelLogoutUri": 
	"http://localhost:4200/login",
bool "FrontChannelLogoutSessionRequired": false,
bool "AllowRememberConsent": true
}